Taxonomy vs. Popularity in the birds of New Zealand
…
The packages we’ll be using this week in addition to the core tidyverse packages are wikitaxa to help convert common names to scientific names, treeio to read the phylogenetic tree into R, ggtree to visualize the phylogeny, and patchwork to combine the tree with so let’s load those and get started.

library(tidyverse)
library(wikitaxa)
library(treeio)
library(ggtree)
library(patchwork)

We can also grab the data from the Tidy Tuesday repo

nz_bird <- readr::read_csv("https://raw.githubusercontent.com/rfordatascience/tidytuesday/master/data/2019/2019-11-19/nz_bird.csv")

nz_bird

## # A tibble: 217,300 x 4
##    date        hour vote_rank bird_breed         
##    <date>     <dbl> <chr>     <chr>              
##  1 2019-10-28     8 vote_1    Gibson's Albatross 
##  2 2019-10-28     8 vote_2    Tūī                
##  3 2019-10-28     8 vote_3    Kākā               
##  4 2019-10-28     8 vote_4    Kākāpō             
##  5 2019-10-28     8 vote_5    Little Spotted Kiwi
##  6 2019-10-28     8 vote_1    Spotted Shag       
##  7 2019-10-28     8 vote_2    Fantail            
##  8 2019-10-28     8 vote_3    Weka               
##  9 2019-10-28     8 vote_4    <NA>               
## 10 2019-10-28     8 vote_5    <NA>               
## # … with 217,290 more rows
…
