Taxonomy vs. Popularity in the birds of New Zealand-barber.science
…
library(tidyverse)
library(wikitaxa)
library(treeio)
library(ggtree)
library(patchwork)

We can also grab the data from the Tidy Tuesday repo.

The  “Bird of the Year” voting was done in a rather complicated instant runoff system over several weeksm, so if we look at the raw data, we can see that we have dates, hours, and vote ranks because people could vote for up to 5 birds. To simplify this, we’ll just look at the total number of votes because that give’s the same results at least for the top birds that we’re focusing on.

nz_bird <- readr::read_csv("https://raw.githubusercontent.com/rfordatascience/tidytuesday/master/data/2019/2019-11-19/nz_bird.csv")
nz_bird

## # A tibble: 217,300 x 4
##    date        hour vote_rank bird_breed         
##    <date>     <dbl> <chr>     <chr>              
##  1 2019-10-28     8 vote_1    Gibson's Albatross 
##  2 2019-10-28     8 vote_2    Tūī                
##  3 2019-10-28     8 vote_3    Kākā               
##  4 2019-10-28     8 vote_4    Kākāpō             
##  5 2019-10-28     8 vote_5    Little Spotted Kiwi
##  6 2019-10-28     8 vote_1    Spotted Shag       
##  7 2019-10-28     8 vote_2    Fantail            
##  8 2019-10-28     8 vote_3    Weka               
##  9 2019-10-28     8 vote_4    <NA>               
## 10 2019-10-28     8 vote_5    <NA>               
## # … with 217,290 more rows
…
