Phylogeny vs. popularity in the birds of New Zealand-barber.science
…
library(tidyverse)
library(wikitaxa)
library(treeio)
library(ggtree)
library(patchwork)

We can also grab the data from the Tidy Tuesday repo:

nz_bird <- readr::read_csv("https://raw.githubusercontent.com/rfordatascience/tidytuesday/master/data/2019/2019-11-19/nz_bird.csv")

The  “Bird of the Year” voting was done in a rather complicated instant runoff system over several weeks, so if we look at the raw data, we can see that we have dates, hours, and vote ranks because people could vote for up to 5 birds. To simplify this, we’ll just look at the total number of votes each bird received.

nz_bird

## # A tibble: 217,300 x 4
##    date        hour vote_rank bird_breed         
##    <date>     <dbl> <chr>     <chr>              
##  1 2019-10-28     8 vote_1    Gibson's Albatross 
##  2 2019-10-28     8 vote_2    Tūī                
##  3 2019-10-28     8 vote_3    Kākā               
##  4 2019-10-28     8 vote_4    Kākāpō             
##  5 2019-10-28     8 vote_5    Little Spotted Kiwi
##  6 2019-10-28     8 vote_1    Spotted Shag       
##  7 2019-10-28     8 vote_2    Fantail            
##  8 2019-10-28     8 vote_3    Weka               
##  9 2019-10-28     8 vote_4    <NA>               
## 10 2019-10-28     8 vote_5    <NA>               
## # … with 217,290 more rows
…
Condense multiple Wikispecies hits down to a single (correct) scientific name

If we looked at the results for the Kākāpō above where the first search result is the correct scientific name, we might assume that it would work to just take the first result for all our searches (we can also use purrr::map_dfr() to return a table of the results instead of a list).

top_result <- map_dfr(query_results, ~head(.x, 1), .id = "common_name") %>% 
    select(common_name, latin_name = title)
top_result

## # A tibble: 27 x 2
##    common_name         latin_name                            
##    <chr>               <chr>                                 
##  1 Yellow-eyed penguin Megadyptes antipodes                  
##  2 Kākāpō              Strigops habroptila                   
##  3 Black Robin         Black robin associated gemykibivirus 1
##  4 Kākā                Nestor meridionalis                   
##  5 Kea                 Steven Chew Kea Foo                   
##  6 Tūī                 Domene tui                            
##  7 Blue Duck           Hymenolaimus malacorhynchos           
##  8 Fantail             Rhipidura maculipectus                
##  9 New Zealand Falcon  Falco novaeseelandiae                 
## 10 Kererū              Hemiphaga novaeseelandiae             
## # … with 17 more rows
…
Again, if this was part of a bigger project, I would have tried to webscrap their Latin names somehow, but because it was only 3 entries, I just googled them and made a separate tibble of the missing birds, which I combined with the Wikispecies list above.

missing_bird_names <- tibble(
    common_name = missing_birds,
    latin_name = c("Charadrius bicinctus", "Apteryx australis", "Eudyptes pachyrhynchus")
)

Now at the end of it, we have a table with the common and scientific names of the top 30 birds in the New Zealand Bird of the Year voting, ready for phylogenetic analysis

bird_names_complete <- bind_rows(bird_names, missing_bird_names)
bird_names_complete

## # A tibble: 30 x 2
##    common_name         latin_name                   
##    <chr>               <chr>                        
##  1 Yellow-eyed penguin Megadyptes antipodes         
##  2 Kākāpō              Strigops habroptila          
##  3 Black Robin         Petroica traversi            
##  4 Kākā                Nestor meridionalis          
##  5 Kea                 Nestor notabilis             
##  6 Tūī                 Prosthemadera novaeseelandiae
##  7 Blue Duck           Hymenolaimus malacorhynchos  
##  8 Fantail             Rhipidura maculipectus       
##  9 New Zealand Falcon  Falco novaeseelandiae        
## 10 Kererū              Hemiphaga novaeseelandiae    
## # … with 20 more rows
…
Let’s first make a graph of how many votes each of the birds in our phylogeny got by going back to our original Tidy Tuesday NZ birds dataset, counting the number of votes for each bird species, and adding their Latin name to make the same “Common name (Latin name)” label we used in our tree.

vote_df <- nz_bird %>%
    filter(!is.na(vote_rank) & !is.na(bird_breed)) %>%
    count(bird_breed) %>%
    arrange(desc(n)) %>%
    top_n(30) %>% 
    left_join(bird_names_complete, by = c("bird_breed" = "common_name")) %>% 
    mutate(label = glue::glue("{bird_breed} ({latin_name})")) %>% 
    select(label, n)

vote_df

## # A tibble: 30 x 2
##    label                                          n
##    <glue>                                     <int>
##  1 Yellow-eyed penguin (Megadyptes antipodes) 12022
##  2 Kākāpō (Strigops habroptila)               11161
##  3 Black Robin (Petroica traversi)             8304
##  4 Kākā (Nestor meridionalis)                  7655
##  5 Banded Dotterel (Charadrius bicinctus)      6692
##  6 Kea (Nestor notabilis)                      6364
##  7 Tūī (Prosthemadera novaeseelandiae)         6288
##  8 Blue Duck (Hymenolaimus malacorhynchos)     6194
##  9 Fantail (Rhipidura maculipectus)            6120
## 10 New Zealand Falcon (Falco novaeseelandiae)  5992
## # … with 20 more rows
…
